{
    "facebook_app_id": "793237358168604",
    "google_analytics_id": "UA-179023138-1",
    "img_proxy_prefix": "https://imgp.blurt.world/",
    "ipfs_prefix": false,
    "notify": {
        "gcm_key": "google secret key"
    },
    "read_only_mode": false,
    "recaptcha": {
        "secret_key": false,
        "site_key": false
    },
    "sendgrid": {
        "from": "noreply@example.com",
        "key": "SG.xxx_yyyy",
        "templates": {}
    },
    "server_session_secret": "HusUOYIruoK1yeYR/4QRuybQZP1UpkNaRkegTEN9u8w=",
    "session_cookie_key": "blurt-dev",
    "session_key": "blurt_session_key",
    "site_domain": "blurt.blog",
    "telesign": {
        "customer_id": false,
        "rest_api_key": false
    },
    "twilio": {
        "account_sid": false,
        "auth_token": false
    },
    "price_info_url": "https://api.blurt.world/price_info",
    "coal_url": "https://coal.blurtwallet.com/",
    "nsfw_url": "https://gitlab.com/blurt/openblurt/coal/-/raw/master/nsfw.json",
    "phishing_url": "https://gitlab.com/blurt/openblurt/coal/-/raw/master/phishing-domain.json",
    "phishing_domains": [
        "peypaisecurity.com",
        "kinrnightx.monster",
        "jarolovexr.click",
        "najirchat.cfd"
    ],
    "upload_image": "https://images.blurt.blog",
    "blurtd_connection_client": "https://rpc.blurt.world",
    "blurtd_connection_server": "https://rpc.blurt.world",
    "blurtd_use_appbase": true,
    "chain_id": "cd8d90f29ae273abec3eaa7731e25934c63eb654d55080caff2ebb7f5df6381f",
    "alternative_api_endpoints": "https://rpc.blurt.world https://blurt-rpc.saboin.com https://rpc.nerdtopia.de https://rpc.dotwin1981.de https://kentzz.blurt.world/ https://rpc.blurtlatam.com/ https://blurt.ecosynthesizer.com/",
    "failover_threshold": 3,
    "address_prefix": "BLT",
    "conveyor_posting_wif": false,
    "conveyor_username": false,
    "dapps_url": "https://gitlab.com/blurt/openblurt/condenser-pinned/-/raw/master/dapps.json",
    "special_posts_url": "https://gitlab.com/blurt/openblurt/condenser-pinned/-/raw/master/pinned-posts.json",
    "wallet_url": "https://blurtwallet.com",
    "gpt_banned_tags": ["nsfw", "tante"],
    "google_ad_enabled": true,
    "google_ad_test": false,
    "google_ad_client": "ca-pub-8228818602519714",
    "google_ad_slots": {
        "market_1": {
            "slot_id": "2777377820"
        },
        "in_feed_1": {
            "slot_id": "9514544128",
            "layout_key": "-fb+5w+4e-db+86",
            "every": 15
        }
    },
    "gpt_enabled": null,
    "gpt_basic_slots": {
        "bottom-of-post": {
            "path": "/21784675435/steemit_bottom-of-post",
            "dimensions": [
                [728, 90],
                [970, 90]
            ]
        },
        "bottom-of-post-mobile": {
            "path": "/21784675435/steemit_bottom-of-post/steemit_bottom-of-post_mobile",
            "dimensions": [[220, 90]]
        },

        "left-navigation": {
            "path": "/21784675435/steemit_left-navigation",
            "dimensions": [
                [120, 600],
                [160, 600]
            ]
        },
        "left-navigation-loggedin-mobile": {
            "path": "/21784675435/steemit_left-navigation/steemit_left-navigation_loggedin_mobile",
            "dimensions": [[120, 240]]
        },
        "left-navigation-loggedin": {
            "path": "/21784675435/steemit_left-navigation/steemit_left-navigation_loggedin",
            "dimensions": [
                [120, 600],
                [160, 600]
            ]
        },
        "left-navigation-mobile": {
            "path": "/21784675435/steemit_left-navigation/steemit_left-navigation_mobile",
            "dimensions": [[120, 240]]
        },

        "right-navigation": {
            "path": "/21784675435/steemit_right-navigation",
            "dimensions": [
                [120, 600],
                [160, 600]
            ]
        },
        "right-navigation-loggedin-mobile": {
            "path": "/21784675435/steemit_right-navigation/steemit_right-navigation_loggedin_mobile",
            "dimensions": [[120, 240]]
        },
        "right-navigation-loggedin": {
            "path": "/21784675435/steemit_right-navigation/steemit_right-navigation_loggedin",
            "dimensions": [
                [120, 600],
                [160, 600]
            ]
        },
        "right-navigation-mobile": {
            "path": "/21784675435/steemit_right-navigation/steemit_right-navigation_mobile",
            "dimensions": [[120, 240]]
        },

        "top-navigation": {
            "path": "/21784675435/steemit_top-navi",
            "dimensions": [
                [728, 90],
                [970, 90]
            ]
        },
        "top-navigation-loggedin-mobile": {
            "path": "/21784675435/steemit_top-navi/steemit_top-navi_loggedin_mobile",
            "dimensions": [[220, 90]]
        },
        "top-navigation-loggedin": {
            "path": "/21784675435/steemit_top-navi/steemit_top-navi_loggedin",
            "dimensions": [
                [728, 90],
                [970, 90]
            ]
        },
        "top-navigation-mobile": {
            "path": "/21784675435/steemit_top-navi/steemit_top-navi_mobile",
            "dimensions": [[220, 90]]
        }
    },
    "gpt_category_slots": {},
    "gpt_bidding_slots": {
        "bottom-of-post": {
            "path": "/21784675435/steemit_bottom-of-post/steemit_bottom-of-post_prebid",
            "dimensions": [[728, 90]]
        },

        "post-page-above-comments": {
            "path": "/21784675435/steemit_post-page-above-comments",
            "dimensions": [
                [728, 90],
                [970, 90]
            ]
        },
        "post-page-above-comments-loggedin-mobile": {
            "path": "/21784675435/steemit_post-page-above-comments/steemit_post-page-above-comments_loggedin_mobile",
            "dimensions": [[220, 90]]
        },
        "post-page-above-comments-loggedin": {
            "path": "/21784675435/steemit_post-page-above-comments/steemit_post-page-above-comments_loggedin",
            "dimensions": [
                [728, 90],
                [970, 90]
            ]
        },
        "post-page-above-comments-mobile": {
            "path": "/21784675435/steemit_post-page-above-comments/steemit_post-page-above-comments_mobile",
            "dimensions": [[220, 90]]
        },

        "top-navigation": {
            "path": "/21784675435/steemit_top-navi",
            "dimensions": [
                [728, 90],
                [970, 90]
            ]
        },
        "top-navigation-loggedin-mobile": {
            "path": "/21784675435/steemit_top-navi/steemit_top-navi_loggedin_mobile",
            "dimensions": [[220, 90]]
        },
        "top-navigation-loggedin": {
            "path": "/21784675435/steemit_top-navi/steemit_top-navi_loggedin",
            "dimensions": [
                [728, 90],
                [970, 90]
            ]
        },
        "top-navigation-mobile": {
            "path": "/21784675435/steemit_top-navi/steemit_top-navi_mobile",
            "dimensions": [[220, 90]]
        },

        "left-navigation": {
            "path": "/21784675435/steemit_left-navigation/steemit_left-navigation_prebid",
            "dimensions": [
                [120, 600],
                [160, 600]
            ]
        }
    },
    "gpt_bidding": {
        "prebid_timeout": 2000,
        "failsafe_timeout": 3000,
        "ad_units": [
            {
                "code": "/21784675435/steemit_top-navi",
                "mediaTypes": {
                    "banner": {
                        "sizes": [
                            [728, 90],
                            [220, 90],
                            [970, 90]
                        ]
                    }
                },
                "bids": [
                    {
                        "bidder": "coinzilla",
                        "params": { "placementId": "6425c7b9886e0045972" }
                    }
                ]
            },
            {
                "code": "/21784675435/steemit_post-page-above-comments",
                "mediaTypes": {
                    "banner": {
                        "sizes": [
                            [728, 90],
                            [220, 90],
                            [970, 90]
                        ]
                    }
                },
                "bids": [
                    {
                        "bidder": "coinzilla",
                        "params": { "placementId": "6425c7b9886e0045972" }
                    }
                ]
            },
            {
                "code": "/21784675435/steemit_left-navigation/steemit_left-navigation_prebid",
                "mediaTypes": {
                    "banner": {
                        "sizes": [
                            [120, 600],
                            [160, 600]
                        ]
                    }
                },
                "bids": [
                    {
                        "bidder": "coinzilla",
                        "params": { "placementId": "3575c7b9886e2cb3619" }
                    }
                ]
            }
        ],
        "custom_config": {
            "buckets": [
                {
                    "precision": 2,
                    "min": 0,
                    "max": 1,
                    "increment": 0.05
                },
                {
                    "precision": 2,
                    "min": 1,
                    "max": 8,
                    "increment": 0.1
                }
            ]
        },
        "system_currency": {
            "adServerCurrency": "USD",
            "granularityMultiplier": 1
        }
    },
    "cookie_consent_enabled": null,
    "cookie_consent_api_key": null,
    "steem_market_endpoint": null,
    "steem_market_token": null,
    "steem_market_cache": {
        "ttl": 7200,
        "key": "steem-market"
    }
}
